[
  {
    "id": "9e243930-83c9-11e9-8e0c-8f1a686f4ce5",
    "login": "admin",
    "name": "Admin",
    "role": 1,
    "password": "admin",
    "avatar": "https://resizing.flixster.com/IaXbRF4gIPh9jireK_4VCPNfdKc=/300x0/v2/https://flxt.tmsimg.com/v2/AllPhotos/591658/591658_v2_bb.jpg"
  },
  {
    "id": "533b5230-1b8f-11e8-9629-c7eca82aa7bd",
    "avatar": "https://resizing.flixster.com/EVAkglctn7E9B0hVKJrueplabuQ=/220x196/v1.cjs0NjYwNjtqOzE4NDk1OzEyMDA7MjIwOzE5Ng",
    "name": "Wendy",
    "role": 0,
    "password": "1234",
    "login": "wendy@gmail.com"
  },
  {
    "id": "5328dba1-1b8f-11e8-9629-c7eca82aa7bd",
    "avatar": "https://www.aceshowbiz.com/images/photo/tom_pelphrey.jpg",
    "name": "Ben",
    "role": 0,
    "password": "1234",
    "login": "ben@dgdh.djh"
  },
  {
    "login": "egr@dgdh.djh",
    "name": "Regre",
    "password": "ergerg",
    "role": 0,
    "avatar": "https://resizing.flixster.com/IaXbRF4gIPh9jireK_4VCPNfdKc=/300x0/v2/https://flxt.tmsimg.com/v2/AllPhotos/591658/591658_v2_bb.jpg",
    "id": "ea127ee4-f54d-49d3-850f-1c90289bd505"
  },
  {
    "login": "ninajhjh@dgdh.djh",
    "name": "nina4",
    "password": "erger",
    "role": 0,
    "avatar": "https://resizing.flixster.com/IaXbRF4gIPh9jireK_4VCPNfdKc=/300x0/v2/https://flxt.tmsimg.com/v2/AllPhotos/591658/591658_v2_bb.jpg",
    "id": "aba02141-c07c-4e19-bcf7-f23bd78b796f"
  },
  {
    "id": "9e243930-83c9-11e9-8e0c-8f1a686f4ce4",
    "login": "ruth@gmail.com",
    "name": "Ruth",
    "role": 0,
    "password": "1234",
    "avatar": "https://resizing.flixster.com/kr0IphfLGZqni5JOWDS2P1-zod4=/280x250/v1.cjs0OTQ2NztqOzE4NDk1OzEyMDA7MjgwOzI1MA"
  },
  {
    "id": "4b003c20-1b8f-11e8-9629-c7eca82aa7bd",
    "avatar": "https://resizing.flixster.com/PCEX63VBu7wVvdt9Eq-FrTI6d_4=/300x300/v1.cjs0MzYxNjtqOzE4NDk1OzEyMDA7MzQ5OzMxMQ",
    "name": "Helen",
    "role": 0,
    "password": "1234",
    "login": "helen@dgdh.djh"
  },
  {
    "id": "46844508-e4cd-46d1-b6b5-bba731ffcaff",
    "login": "sasha@dgdh.djh",
    "name": "sasha",
    "password": "1234",
    "role": 0,
    "avatar": "https://resizing.flixster.com/IaXbRF4gIPh9jireK_4VCPNfdKc=/300x0/v2/https://flxt.tmsimg.com/v2/AllPhotos/591658/591658_v2_bb.jpg"
  },
  {
    "id": "938ce473-0db2-4e38-bd40-752bc49cee24",
    "login": "fcfgc@hrhjr.tnhtrjk",
    "name": "sasharjk",
    "password": "rjntkr",
    "role": 0,
    "avatar": "https://resizing.flixster.com/IaXbRF4gIPh9jireK_4VCPNfdKc=/300x0/v2/https://flxt.tmsimg.com/v2/AllPhotos/591658/591658_v2_bb.jpg"
  }
]